{
    "MMM": "www.3m.com",
    "AOS": "www.aosmith.com",
    "ABT": "www.abbott.com",
    "ABBV": "www.abbvie.com",
    "ACN": "www.accenture.com",
    "ATVI": "www.activision.com",
    "ADM": "www.adm.com",
    "ADBE": "www.adobe.com",
    "ADP": "www.adp.com",
    "AAP": "shop.advanceautoparts.com",
    "AES": "www.aes.com",
    "AFL": "www.aflac.com",
    "A": "www.agilent.com",
    "APD": "www.airproducts.com",
    "AKAM": "www.akamai.com",
    "ALK": "www.alaskaair.com",
    "ALB": "www.albemarle.com",
    "ARE": "www.are.com",
    "ALGN": "www.aligntech.com",
    "ALLE": "www.allegion.com",
    "LNT": "www.alliantenergy.com",
    "ALL": "www.allstate.com",
    "GOOGL": "careers.google.com",
    "GOOG": "abc.xyz/",
    "MO": "www.altria.com",
    "AMZN": "www.aboutamazon.com",
    "AMCR": "www.amcor.com",
    "AMD": "www.amd.com",
    "AEE": "www.ameren.com",
    "AAL": "www.aa.com",
    "AEP": "www.aep.com",
    "AXP": "www.americanexpress.com",
    "AIG": "www.aig.com",
    "AMT": "www.americantower.com",
    "AWK": "www.awwa.org/",
    "AMP": "www.ameriprise.com",
    "ABC": "www.amerisourcebergen.com",
    "AME": "www.ametek.com",
    "AMGN": "www.amgen.com",
    "APH": "amphenol.com",
    "ADI": "www.analog.com",
    "ANSS": "www.ansys.com",
    "AON": "www.aon.com",
    "APA": "apacorp.com",
    "AAPL": "www.apple.com",
    "AMAT": "www.appliedmaterials.com",
    "APTV": "www.aptiv.com",
    "ACGL": "www.archgroup.com",
    "ANET": "www.arista.com",
    "AJG": "www.ajg.com",
    "AIZ": "www.assurant.com",
    "T": "www.att.com",
    "ATO": "www.atmosenergy.com",
    "ADSK": "www.autodesk.com",
    "AZO": "www.autozone.com",
    "AVB": "www.avaloncommunities.com",
    "AVY": "www.averydennison.com",
    "BKR": "www.bakerhughes.com",
    "BALL": "www.ball.com",
    "BAC": "business.bofa.com",
    "BBWI": "www.bathandbodyworks.com",
    "BAX": "www.baxter.com",
    "BDX": "www.bd.com",
    "WRB": "www.berkeley.edu/",
    "BRK-B": "www.theatlantic.com",
    "BBY": "www.bestbuy.com",
    "BIO": "www.bio-rad.com",
    "TECH": "www.bio-techne.com",
    "BIIB": "www.biogen.com",
    "BLK": "www.blackrock.com",
    "BK": "www.bnymellon.com",
    "BA": "www.boeing.com",
    "BKNG": "www.bookingholdings.com",
    "BWA": "www.borgwarner.com",
    "BXP": "www.bxp.com",
    "BSX": "www.bostonscientific.com",
    "BMY": "www.bms.com",
    "AVGO": "www.broadcom.com",
    "BR": "www.broadridge.com",
    "BRO": "www.brown.edu/",
    "BF-B": "site.coralgableschamber.org/LiquorsWholesale/BrownForman-Beverages-2124",
    "BG": "www.bungenorthamerica.com",
    "CHRW": "www.chrobinson.com",
    "CDNS": "www.cadence.com",
    "CZR": "www.caesars.com",
    "CPT": "investors.camdenliving.com",
    "CPB": "www.campbellsoupcompany.com",
    "COF": "www.capitalone.com",
    "CAH": "www.cardinalhealth.com",
    "KMX": "www.carmax.com",
    "CCL": "www.carnival.com",
    "CARR": "www.corporate.carrier.com",
    "CTLT": "www.catalent.com",
    "CAT": "www.caterpillar.com",
    "CBOE": "www.cboe.com",
    "CBRE": "www.cbre.us/en",
    "CDW": "www.cdw.com",
    "CE": "www.celanese.com",
    "CNC": "www.centene.com",
    "CNP": "www.centerpointenergy.com",
    "CDAY": "www.ceridian.com",
    "CF": "www.cfindustries.com",
    "CRL": "www.criver.com",
    "SCHW": "www.schwab.com",
    "CHTR": "corporate.charter.com",
    "CVX": "www.chevron.com",
    "CMG": "www.chipotle.com",
    "CB": "www.chubb.com",
    "CHD": "churchdwight.com",
    "CI": "www.cigna.com",
    "CINF": "www.cinfin.com",
    "CTAS": "www.cintas.com",
    "CSCO": "www.cisco.com",
    "C": "www.citigroup.com",
    "CFG": "www.citizensbank.com",
    "CLX": "www.thecloroxcompany.com",
    "CME": "www.cmegroup.com",
    "CMS": "www.consumersenergy.com",
    "KO": "www.coca-colacompany.com",
    "CTSH": "www.cognizant.com",
    "CL": "www.colgatepalmolive.com",
    "CMCSA": "www.xfinity.com",
    "CMA": "www.com",
    "CAG": "www.conagrabrands.com",
    "COP": "www.conocophillips.com",
    "ED": "conedison.com",
    "STZ": "www.cbrands.com",
    "CEG": "www.constellation.com",
    "COO": "www.coopercos.com",
    "CPRT": "www.copart.com",
    "GLW": "www.corning.com",
    "CTVA": "www.corteva.com",
    "CSGP": "www.costar.com",
    "COST": "www.costco.com",
    "CTRA": "www.coterra.com",
    "CCI": "www.crowncastle.com",
    "CSX": "www.csx.com",
    "CMI": "shop.cummins.com",
    "CVS": "www.cvshealth.com",
    "DHI": "www.drhorton.com",
    "DHR": "www.danaher.com",
    "DRI": "www.darden.com",
    "DVA": "www.davita.com",
    "DE": "www.deere.com",
    "DAL": "www.delta.com",
    "XRAY": "www.dentsplysirona.com",
    "DVN": "www.devonenergy.com",
    "DXCM": "www.dexcom.com",
    "FANG": "ir.diamondbackenergy.com",
    "DLR": "www.digitalrealty.com",
    "DFS": "www.discover.com",
    "DISH": "www.dish.com",
    "DIS": "disneyworld.disney.go.com",
    "DG": "www.dollargeneral.com",
    "DLTR": "www.dollartree.com",
    "D": "www.dominionenergy.com",
    "DPZ": "www.dominos.com",
    "DOV": "www.dovercorporation.com",
    "DOW": "www.dow.com",
    "DTE": "www.dteenergy.com",
    "DUK": "www.duke-energy.com",
    "DD": "www.dupont.com",
    "DXC": "dxc.com",
    "EMN": "www.eastman.com",
    "ETN": "www.eaton.com",
    "EBAY": "www.ebay.com",
    "ECL": "www.ecolab.com",
    "EIX": "www.edison.com",
    "EW": "www.edwards.com",
    "EA": "www.ea.com",
    "ELV": "www.elevancehealth.com",
    "LLY": "www.lilly.com",
    "EMR": "www.emerson.com",
    "ENPH": "enphase.com",
    "ETR": "www.entergy.com",
    "EOG": "www.globaldata.com",
    "EPAM": "www.epam.com",
    "EQT": "www.eqt.com",
    "EFX": "www.equifax.com",
    "EQIX": "www.equinix.com",
    "EQR": "www.equityapartments.com",
    "ESS": "www.essexapartmenthomes.com",
    "EL": "www.elcompanies.com",
    "ETSY": "www.etsy.com",
    "RE": "www.everestre.com",
    "EVRG": "www.evergy.com",
    "ES": "www.eversource.com",
    "EXC": "www.exeloncorp.com",
    "EXPE": "www.expediagroup.com",
    "EXPD": "www.expeditors.com",
    "EXR": "www.extraspace.com",
    "XOM": "corporate.exxonmobil.com",
    "FFIV": "www.f5.com",
    "FDS": "www.factset.com",
    "FICO": "www.fico.com",
    "FAST": "www.fastenal.com",
    "FRT": "www.federalrealty.com",
    "FDX": "www.fedex.com",
    "FITB": "www.53.com",
    "FRC": "www.firstrepublic.com",
    "FSLR": "www.firstsolar.com",
    "FE": "firstenergycorp.com",
    "FIS": "www.fisglobal.com",
    "FISV": "www.fiserv.com",
    "FLT": "www.fleetcor.com",
    "FMC": "www.fmc.com",
    "F": "corporate.ford.com",
    "FTNT": "www.fortinet.com",
    "FTV": "www.fortive.com",
    "FOXA": "www.foxcorporation.com",
    "FOX": "www.foxcorporation.com",
    "BEN": "www.franklintempleton.com",
    "FCX": "www.fcx.com",
    "GRMN": "www.garmin.com",
    "IT": "www.gartner.com",
    "GEHC": "www.gehealthcare.com",
    "GEN": "investor.gendigital.com",
    "GNRC": "www.generac.com",
    "GD": "www.gd.com",
    "GE": "www.ge.com",
    "GIS": "www.generalmills.com",
    "GM": "www.gm.com",
    "GPC": "www.genpt.com",
    "GILD": "www.gilead.com",
    "GL": "home.globelifeinsurance.com",
    "GPN": "www.globalpayments.com",
    "GS": "www.goldmansachs.com",
    "HAL": "www.halliburton.com",
    "HIG": "www.thehartford.com",
    "HAS": "shop.hasbro.com",
    "HCA": "hcahealthcare.com",
    "PEAK": "www.healthpeak.com",
    "HSIC": "www.henryschein.com",
    "HSY": "www.thehersheycompany.com",
    "HES": "www.hess.com",
    "HPE": "www.hpe.com",
    "HLT": "www.hilton.com",
    "HOLX": "www.hologic.com",
    "HD": "www.homedepot.com",
    "HON": "www.honeywell.com",
    "HRL": "www.hormel.com",
    "HST": "www.hosthotels.com",
    "HWM": "www.howmet.com",
    "HPQ": "www.hp.com",
    "HUM": "www.humana.com",
    "HBAN": "www.huntington.com",
    "HII": "hii.com",
    "IBM": "www.ibm.com",
    "IEX": "www.idexcorp.com",
    "IDXX": "www.idexx.com",
    "ITW": "www.itw.com",
    "ILMN": "www.illumina.com",
    "INCY": "www.incyte.com",
    "IR": "www.ingersollrand.com",
    "PODD": "www.insulet.com",
    "INTC": "www.intel.com",
    "ICE": "www.theice.com",
    "IFF": "www.iff.com",
    "IP": "www.internationalpaper.com",
    "IPG": "www.interpublic.com",
    "INTU": "www.intuit.com",
    "ISRG": "www.intuitive.com",
    "IVZ": "www.nasdaq.com",
    "INVH": "www.invitationhomes.com",
    "IQV": "www.iqvia.com",
    "IRM": "www.ironmountain.com",
    "JBHT": "www.jbhunt.com",
    "JKHY": "www.jackhenry.com",
    "J": "www.jacobs.com",
    "JNJ": "www.jnj.com",
    "JCI": "www.johnsoncontrols.com",
    "JPM": "www.chase.com",
    "JNPR": "www.juniper.net/",
    "K": "www.kelloggs.com",
    "KDP": "www.keurigdrpepper.com",
    "KEY": "www.key.com",
    "KEYS": "www.keysight.com",
    "KMB": "www.kimberly-clark.com",
    "KIM": "www.kimcorealty.com",
    "KMI": "www.kindermorgan.com",
    "KLAC": "www.kla.com",
    "KHC": "www.kraftheinzcompany.com",
    "KR": "www.thekrogerco.com",
    "LHX": "www.l3harris.com",
    "LH": "www.labcorp.com",
    "LRCX": "www.lamresearch.com",
    "LW": "www.lambweston.com",
    "LVS": "www.sands.com",
    "LDOS": "www.leidos.com",
    "LEN": "www.lennar.com",
    "LNC": "www.lincolnfinancial.com",
    "LIN": "www.linde.com",
    "LYV": "www.livenationentertainment.com",
    "LKQ": "www.lkqcorp.com",
    "LMT": "www.lockheedmartin.com",
    "L": "loews.com",
    "LOW": "corporate.lowes.com",
    "LYB": "www.lyondellbasell.com",
    "MTB": "www3.mtb.com",
    "MRO": "www.marathonoil.com",
    "MPC": "www.marathonpetroleum.com",
    "MKTX": "www.marketaxess.com",
    "MAR": "www.marriott.com",
    "MMC": "www.marshmclennan.com",
    "MLM": "www.martinmarietta.com",
    "MAS": "masco.com",
    "MA": "www.mastercard.us/en-us.html",
    "MTCH": "www.match.com",
    "MKC": "www.mccormick.com",
    "MCD": "www.mcdonalds.com",
    "MCK": "mms.mckesson.com",
    "MDT": "www.medtronic.com",
    "MRK": "www.merck.com",
    "META": "about.meta.com",
    "MET": "www.metlife.com",
    "MTD": "www.mt.com",
    "MGM": "www.mgmresorts.com",
    "MCHP": "www.microchip.com",
    "MU": "www.micron.com",
    "MSFT": "www.microsoft.com",
    "MAA": "www.maac.com",
    "MRNA": "www.modernatx.com",
    "MHK": "mohawkind.com",
    "MOH": "www.molinahealthcare.com",
    "TAP": "www.molsoncoors.com",
    "MDLZ": "www.mondelezinternational.com",
    "MPWR": "www.monolithicpower.com",
    "MNST": "www.monsterbevcorp.com",
    "MCO": "www.moodys.com",
    "MS": "www.morganstanley.com",
    "MOS": "www.mosaicco.com",
    "MSI": "www.motorolasolutions.com",
    "MSCI": "www.msci.com",
    "NDAQ": "www.nasdaq.com",
    "NTAP": "www.netapp.com",
    "NFLX": "www.netflix.com",
    "NWL": "www.newellbrands.com",
    "NEM": "newmont.com",
    "NWSA": "newscorp.com",
    "NWS": "newscorp.com",
    "NEE": "www.nexteraenergy.com",
    "NKE": "about.nike.com",
    "NI": "www.nisource.com",
    "NDSN": "www.nordson.com",
    "NSC": "www.nscorp.com",
    "NTRS": "www.northerntrust.com",
    "NOC": "www.northropgrumman.com",
    "NCLH": "www.nclhltd.com",
    "NRG": "www.nrg.com",
    "NUE": "nucor.com",
    "NVDA": "www.nvidia.com",
    "NVR": "www.nvrinc.com",
    "NXPI": "www.nxp.com",
    "ORLY": "www.oreillyauto.com",
    "OXY": "www.oxy.com",
    "ODFL": "www.weareolddominion.com",
    "OMC": "www.omnicomgroup.com",
    "ON": "www.onsemi.com",
    "OKE": "www.oneok.com",
    "ORCL": "www.oracle.com",
    "OGN": "www.organon.com",
    "OTIS": "www.otis.com",
    "PCAR": "www.paccar.com",
    "PKG": "www.packagingcorp.com",
    "PARA": "www.paramount.com",
    "PH": "www.parker.com",
    "PAYX": "www.paychex.com",
    "PAYC": "www.paycom.com",
    "PYPL": "www.paypal.com",
    "PNR": "www.pentair.com",
    "PEP": "www.pepsico.com",
    "PKI": "www.perkinelmer.com",
    "PFE": "www.pfizer.com",
    "PCG": "www.pgecorp.com",
    "PM": "www.pmi.com",
    "PSX": "www.phillips66.com",
    "PNW": "www.pinnaclewest.com",
    "PXD": "www.pxd.com",
    "PNC": "www.pnc.com",
    "POOL": "www.poolcorp.com",
    "PPG": "www.ppg.com",
    "PPL": "www.pplweb.com",
    "PFG": "login.principal.com",
    "PG": "us.pg.com",
    "PGR": "www.progressive.com",
    "PLD": "www.prologis.com",
    "PRU": "www.prudential.com",
    "PEG": "corporate.pseg.com",
    "PTC": "www.ptc.com",
    "PSA": "www.publicstorage.com",
    "PHM": "www.pultegroupinc.com",
    "QRVO": "www.qorvo.com",
    "PWR": "www.quantaservices.com",
    "QCOM": "www.qualcomm.com",
    "DGX": "www.questdiagnostics.com",
    "RL": "corporate.ralphlauren.com",
    "RJF": "www.raymondjames.com",
    "RTX": "www.rtx.com",
    "O": "www.realtyincome.com",
    "REG": "www.regencycenters.com",
    "REGN": "www.regeneron.com",
    "RF": "ir.regions.com",
    "RSG": "www.republicservices.com",
    "RMD": "www.resmed.com",
    "RHI": "www.roberthalf.com",
    "ROK": "www.rockwellautomation.com",
    "ROL": "www.rollins.com",
    "ROP": "www.ropertech.com",
    "ROST": "www.rossstores.com",
    "RCL": "www.royalcaribbean.com",
    "SPGI": "www.spglobal.com",
    "CRM": "login.salesforce.com",
    "SBAC": "sbasite.com",
    "SLB": "www.slb.com",
    "STX": "www.seagate.com",
    "SEE": "www.sealedair.com",
    "SRE": "www.sempra.com",
    "NOW": "www.servicenow.com",
    "SHW": "www.sherwin-williams.com",
    "SPG": "www.simon.com",
    "SWKS": "www.skyworksinc.com",
    "SJM": "www.jmsmucker.com",
    "SNA": "www.snapon.com",
    "SEDG": "www.solaredge.com",
    "SO": "www.southerncompany.com",
    "LUV": "www.southwest.com",
    "SWK": "www.stanleyblackanddecker.com",
    "SBUX": "www.starbucks.com",
    "STT": "www.statestreet.com",
    "STLD": "stld.steeldynamics.com",
    "STE": "www.steris.com",
    "SYK": "www.stryker.com",
    "SYF": "www.synchrony.com",
    "SNPS": "www.synopsys.com",
    "SYY": "www.sysco.com",
    "TMUS": "www.t-mobile.com",
    "TROW": "www.troweprice.com",
    "TTWO": "www.take2games.com",
    "TPR": "www.tapestry.com",
    "TRGP": "www.targaresources.com",
    "TGT": "corporate.target.com",
    "TEL": "www.te.com",
    "TDY": "www.teledyne.com",
    "TFX": "www.teleflex.com",
    "TER": "www.teradyne.com",
    "TSLA": "www.tesla.com",
    "TXN": "www.ti.com",
    "TXT": "www.textron.com",
    "TMO": "corporate.thermofisher.com",
    "TJX": "www.tjx.com",
    "TSCO": "www.tractorsupply.com",
    "TT": "www.tranetechnologies.com",
    "TDG": "www.transdigm.com",
    "TRV": "www.travelers.com",
    "TRMB": "www.trimble.com",
    "TFC": "www.truist.com",
    "TYL": "www.tylertech.com",
    "TSN": "www.tysonfoods.com",
    "USB": "www.usbank.com",
    "UDR": "www.udr.com",
    "ULTA": "www.ulta.com",
    "UNP": "www.up.com",
    "UAL": "ir.united.com",
    "UPS": "www.ups.com",
    "URI": "www.unitedrentals.com",
    "UNH": "www.unitedhealthgroup.com",
    "UHS": "uhs.com",
    "VLO": "www.valero.com",
    "VTR": "www.ventasreit.com",
    "VRSN": "www.verisign.com",
    "VRSK": "www.verisk.com",
    "VZ": "www.verizon.com",
    "VRTX": "www.vrtx.com",
    "VFC": "www.vfc.com",
    "VTRS": "www.viatris.com",
    "VICI": "viciproperties.com",
    "V": "usa.visa.com",
    "VMC": "www.vulcanmaterials.com",
    "WAB": "www.wabteccorp.com",
    "WBA": "www.walgreensbootsalliance.com",
    "WMT": "www.walmart.com",
    "WBD": "wbd.com",
    "WM": "www.wm.com",
    "WAT": "www.waters.com",
    "WEC": "www.wecenergygroup.com",
    "WFC": "www.wellsfargoadvisors.com",
    "WELL": "welltower.com",
    "WST": "www.westpharma.com",
    "WDC": "www.westerndigital.com",
    "WRK": "www.westrock.com",
    "WY": "www.weyerhaeuser.com",
    "WHR": "www.whirlpoolcorp.com",
    "WMB": "www.williams.com",
    "WTW": "online.willistowerswatson.com",
    "GWW": "www.grainger.com",
    "WYNN": "wynnresortslimited.gcs-web.com",
    "XEL": "my.xcelenergy.com",
    "XYL": "www.xylem.com",
    "YUM": "www.yum.com",
    "ZBRA": "www.zebra.com",
    "ZBH": "www.zimmerbiomet.com",
    "ZION": "zionsbancorporation.com",
    "ZTS": "www.zoetisus.com"
}